//id	file	iswav
1	music/01.mp3	0
2	music/02.mp3	0
3	music/03.mp3	0
4	music/04.mp3	0
5	music/05.mp3	0
6	music/06.mp3	0
7	music/07.mp3	0
8	music/08.mp3	0
9	music/09.mp3	0
10	music/10.mp3	0
11	music/11.mp3	0
12	music/12.mp3	0
13	music/13.mp3	0
14	music/14.mp3	0
15	music/15.mp3	0
21	music/sound/pc/01.wav	1
22	music/sound/pc/02.wav	1
23	music/sound/pc/03.wav	1
24	music/sound/pc/04.wav	1
25	music/sound/pc/05.wav	1
26	music/sound/pc/06.wav	1
27	music/sound/pc/07.wav	1
28	music/sound/pc/08.wav	1
29	music/sound/pc/09.wav	1
30	music/sound/pc/10.wav	1
31	music/sound/pc/11.wav	1
32	music/sound/pc/12.wav	1
33	music/sound/pc/13.wav	1
40	music/sound/combat/01.wav	1
41	music/sound/combat/02.wav	1
42	music/sound/combat/03.wav	1
43	music/sound/combat/04.wav	1
44	music/sound/combat/05.wav	1
45	music/sound/combat/06.wav	1
46	music/sound/combat/07.wav	1
47	music/sound/combat/08.wav	1
48	music/sound/combat/09.wav	1
49	music/sound/combat/10.wav	1
50	music/sound/combat/11.wav	1
51	music/sound/combat/12.wav	1
52	music/sound/combat/13.wav	1
53	music/sound/combat/14.wav	1
54	music/sound/combat/15.wav	1
55	music/sound/combat/16.wav	1
56	music/sound/combat/17.wav	1
57	music/sound/combat/18.wav	1
58	music/sound/combat/19.wav	1
59	music/sound/combat/20.wav	1
60	music/sound/combat/21.wav	1
61	music/sound/combat/22.wav	1
62	music/sound/combat/23.wav	1
63	music/sound/combat/24.wav	1
64	music/sound/combat/25.wav	1
65	music/sound/combat/26.wav	1
66	music/sound/combat/27.wav	1
67	music/sound/combat/28.wav	1
68	music/sound/combat/29.wav	1
69	music/sound/combat/30.wav	1
70	music/sound/combat/31.wav	1
71	music/sound/combat/32.wav	1
72	music/sound/combat/33.wav	1
73	music/sound/combat/34.wav	1
74	music/sound/combat/35.wav	1
75	music/sound/combat/36.wav	1
76	music/sound/combat/37.wav	1
77	music/sound/combat/38.wav	1
78	music/sound/combat/39.wav	1
79	music/sound/combat/40.wav	1
80	music/sound/combat/41.wav	1
81	music/sound/combat/42.wav	1
82	music/sound/combat/43.wav	1
83	music/sound/combat/44.wav	1
84	music/sound/combat/45.wav	1
85	music/sound/combat/46.wav	1
86	music/sound/combat/47.wav	1
87	music/sound/combat/48.wav	1
88	music/sound/combat/49.wav	1
89	music/sound/combat/50.wav	1
90	music/sound/combat/51.wav	1
91	music/sound/combat/52.wav	1
92	music/sound/combat/53.wav	1
93	music/sound/combat/54.wav	1
94	music/sound/combat/55.wav	1
95	music/sound/combat/56.wav	1
96	music/sound/combat/57.wav	1
97	music/sound/combat/58.wav	1
98	music/sound/combat/59.wav	1
99	music/sound/combat/60.wav	1
100	music/sound/combat/61.wav	1
101	music/sound/combat/62.wav	1
102	music/sound/combat/63.wav	1
103	music/sound/combat/64.wav	1
104	music/sound/combat/65.wav	1
105	music/sound/combat/66.wav	1
106	music/sound/combat/67.wav	1
107	music/sound/combat/68.wav	1
108	music/sound/combat/69.wav	1
109	music/sound/combat/70.wav	1
110	music/sound/combat/71.wav	1
111	music/sound/combat/72.wav	1
112	music/sound/combat/73.wav	1
113	music/sound/combat/74.wav	1
114	music/sound/combat/75.wav	1
115	music/sound/combat/76.wav	1
116	music/sound/combat/77.wav	1
117	music/sound/combat/78.wav	1
118	music/sound/combat/79.wav	1
119	music/sound/combat/80.wav	1
120	music/sound/combat/81.wav	1
121	music/sound/combat/82.wav	1
122	music/sound/combat/83.wav	1
123	music/sound/combat/84.wav	1
124	music/sound/combat/85.wav	1
125	music/sound/combat/86.wav	1
126	music/sound/combat/87.wav	1
127	music/sound/combat/88.wav	1
128	music/sound/combat/89.wav	1
129	music/sound/combat/90.wav	1
130	music/sound/combat/91.wav	1
131	music/sound/combat/92.wav	1
132	music/sound/combat/93.wav	1
133	music/sound/combat/94.wav	1
134	music/sound/combat/95.wav	1
135	music/sound/combat/96.wav	1
136	music/sound/combat/97.wav	1
137	music/sound/combat/98.wav	1
138	music/sound/combat/99.wav	1
139	music/sound/combat/100.wav	1
140	music/sound/combat/101.wav	1
143	music/sound/combat/104.wav	1
144	music/sound/combat/105.wav	1
145	music/sound/combat/106.wav	1
146	music/sound/combat/107.wav	1
147	music/sound/combat/108.wav	1
148	music/sound/combat/109.wav	1
149	music/sound/combat/110.wav	1
150	music/sound/combat/111.wav	1
151	music/sound/combat/112.wav	1
200	music/sound/monster/0.wav	1
201	music/sound/monster/1.wav	1
202	music/sound/monster/2.wav	1
203	music/sound/monster/3.wav	1
204	music/sound/monster/4.wav	1
205	music/sound/monster/5.wav	1
206	music/sound/monster/6.wav	1
207	music/sound/monster/7.wav	1
208	music/sound/monster/8.wav	1
209	music/sound/monster/9.wav	1
210	music/sound/monster/10.wav	1
211	music/sound/monster/11.wav	1
212	music/sound/monster/12.wav	1
213	music/sound/monster/13.wav	1
214	music/sound/monster/14.wav	1
215	music/sound/monster/15.wav	1
216	music/sound/monster/16.wav	1
217	music/sound/monster/17.wav	1
218	music/sound/monster/18.wav	1
219	music/sound/monster/19.wav	1
220	music/sound/monster/20.wav	1
221	music/sound/monster/21.wav	1
222	music/sound/monster/22.wav	1
223	music/sound/monster/23.wav	1
224	music/sound/monster/24.wav	1
225	music/sound/monster/25.wav	1
226	music/sound/monster/26.wav	1
227	music/sound/monster/27.wav	1
228	music/sound/monster/28.wav	1
229	music/sound/monster/29.wav	1
230	music/sound/monster/30.wav	1
231	music/sound/monster/31.wav	1
232	music/sound/monster/32.wav	1
233	music/sound/monster/33.wav	1
234	music/sound/monster/34.wav	1
235	music/sound/monster/35.wav	1
236	music/sound/monster/36.wav	1
237	music/sound/monster/37.wav	1
238	music/sound/monster/38.wav	1
239	music/sound/monster/39.wav	1
240	music/sound/monster/40.wav	1
241	music/sound/monster/41.wav	1
242	music/sound/monster/42.wav	1
243	music/sound/monster/43.wav	1
244	music/sound/monster/44.wav	1
245	music/sound/monster/45.wav	1
246	music/sound/monster/46.wav	1
247	music/sound/monster/47.wav	1
248	music/sound/monster/48.wav	1
249	music/sound/monster/49.wav	1
250	music/sound/monster/50.wav	1
251	music/sound/monster/51.wav	1
252	music/sound/monster/52.wav	1
253	music/sound/monster/53.wav	1
254	music/sound/monster/54.wav	1
255	music/sound/monster/55.wav	1
256	music/sound/monster/56.wav	1
257	music/sound/monster/57.wav	1
258	music/sound/monster/58.wav	1
259	music/sound/monster/59.wav	1
260	music/sound/monster/60.wav	1
261	music/sound/monster/61.wav	1
262	music/sound/monster/62.wav	1
263	music/sound/monster/63.wav	1
264	music/sound/monster/64.wav	1
265	music/sound/monster/65.wav	1
266	music/sound/monster/66.wav	1
267	music/sound/monster/67.wav	1
268	music/sound/monster/68.wav	1
269	music/sound/monster/69.wav	1
270	music/sound/monster/70.wav	1
271	music/sound/monster/71.wav	1
272	music/sound/monster/72.wav	1
273	music/sound/monster/73.wav	1
274	music/sound/monster/74.wav	1
275	music/sound/monster/75.wav	1
276	music/sound/monster/76.wav	1
277	music/sound/monster/77.wav	1
278	music/sound/monster/78.wav	1
279	music/sound/monster/79.wav	1
280	music/sound/monster/80.wav	1
281	music/sound/monster/81.wav	1
282	music/sound/monster/82.wav	1
283	music/sound/monster/83.wav	1
284	music/sound/monster/84.wav	1
285	music/sound/monster/85.wav	1
286	music/sound/monster/86.wav	1
287	music/sound/monster/87.wav	1
288	music/sound/monster/88.wav	1
289	music/sound/monster/89.wav	1
290	music/sound/monster/90.wav	1
291	music/sound/monster/91.wav	1
292	music/sound/monster/92.wav	1
293	music/sound/monster/93.wav	1
294	music/sound/monster/94.wav	1
295	music/sound/monster/95.wav	1
296	music/sound/monster/96.wav	1
297	music/sound/monster/97.wav	1
298	music/sound/monster/98.wav	1
299	music/sound/monster/99.wav	1
300	music/sound/monster/100.wav	1
301	music/sound/monster/101.wav	1
302	music/sound/monster/102.wav	1
303	music/sound/monster/103.wav	1
304	music/sound/monster/104.wav	1
305	music/sound/monster/105.wav	1
306	music/sound/monster/106.wav	1
307	music/sound/monster/107.wav	1
308	music/sound/monster/108.wav	1
309	music/sound/monster/109.wav	1
310	music/sound/monster/110.wav	1
311	music/sound/monster/111.wav	1
312	music/sound/monster/112.wav	1
313	music/sound/monster/113.wav	1
314	music/sound/monster/114.wav	1
315	music/sound/monster/115.wav	1
316	music/sound/monster/116.wav	1
317	music/sound/monster/117.wav	1
318	music/sound/monster/118.wav	1
319	music/sound/monster/119.wav	1
320	music/sound/monster/120.wav	1
321	music/sound/monster/121.wav	1
322	music/sound/monster/122.wav	1
323	music/sound/monster/123.wav	1
324	music/sound/monster/124.wav	1
325	music/sound/monster/125.wav	1
326	music/sound/monster/126.wav	1
327	music/sound/monster/127.wav	1
328	music/sound/monster/128.wav	1
329	music/sound/monster/129.wav	1
330	music/sound/monster/130.wav	1
331	music/sound/monster/131.wav	1
332	music/sound/monster/132.wav	1
333	music/sound/monster/133.wav	1
334	music/sound/monster/134.wav	1
335	music/sound/monster/135.wav	1
336	music/sound/monster/136.wav	1
337	music/sound/monster/137.wav	1
338	music/sound/monster/138.wav	1
339	music/sound/monster/139.wav	1
340	music/sound/monster/140.wav	1
341	music/sound/monster/141.wav	1
342	music/sound/monster/142.wav	1
343	music/sound/monster/143.wav	1
344	music/sound/monster/144.wav	1
345	music/sound/monster/145.wav	1
346	music/sound/monster/146.wav	1
347	music/sound/monster/147.wav	1
348	music/sound/monster/148.wav	1
349	music/sound/monster/149.wav	1
350	music/sound/monster/150.wav	1
351	music/sound/monster/151.wav	1
352	music/sound/monster/152.wav	1
353	music/sound/monster/153.wav	1
354	music/sound/monster/154.wav	1
355	music/sound/monster/155.wav	1
356	music/sound/monster/156.wav	1
357	music/sound/monster/157.wav	1
358	music/sound/monster/158.wav	1
359	music/sound/monster/159.wav	1
360	music/sound/monster/160.wav	1
361	music/sound/monster/161.wav	1
362	music/sound/monster/162.wav	1
363	music/sound/monster/163.wav	1
364	music/sound/monster/164.wav	1
365	music/sound/monster/165.wav	1
366	music/sound/monster/166.wav	1
367	music/sound/monster/167.wav	1
368	music/sound/monster/168.wav	1
369	music/sound/monster/169.wav	1
370	music/sound/monster/170.wav	1
371	music/sound/monster/171.wav	1
372	music/sound/monster/172.wav	1
373	music/sound/monster/173.wav	1
374	music/sound/monster/174.wav	1
375	music/sound/monster/175.wav	1
376	music/sound/monster/176.wav	1
377	music/sound/monster/177.wav	1
378	music/sound/monster/178.wav	1
379	music/sound/monster/179.wav	1
380	music/sound/monster/180.wav	1
381	music/sound/monster/181.wav	1
382	music/sound/monster/182.wav	1
383	music/sound/monster/183.wav	1
384	music/sound/monster/184.wav	1
385	music/sound/monster/185.wav	1
386	music/sound/monster/186.wav	1
387	music/sound/monster/187.wav	1
388	music/sound/monster/188.wav	1
389	music/sound/monster/189.wav	1
390	music/sound/monster/190.wav	1
391	music/sound/monster/191.wav	1
392	music/sound/monster/192.wav	1
393	music/sound/monster/193.wav	1
394	music/sound/monster/194.wav	1
395	music/sound/monster/195.wav	1
396	music/sound/monster/196.wav	1
397	music/sound/monster/197.wav	1
398	music/sound/monster/198.wav	1
399	music/sound/monster/199.wav	1
400	music/sound/monster/200.wav	1
401	music/sound/monster/201.wav	1
402	music/sound/monster/202.wav	1
403	music/sound/monster/203.wav	1
404	music/sound/monster/204.wav	1
405	music/sound/monster/205.wav	1
406	music/sound/monster/206.wav	1
407	music/sound/monster/207.wav	1
408	music/sound/monster/208.wav	1
409	music/sound/monster/209.wav	1
410	music/sound/monster/210.wav	1
411	music/sound/monster/211.wav	1
412	music/sound/monster/212.wav	1
413	music/sound/monster/213.wav	1
414	music/sound/monster/214.wav	1
415	music/sound/monster/215.wav	1
416	music/sound/monster/216.wav	1
417	music/sound/monster/217.wav	1
418	music/sound/monster/218.wav	1
419	music/sound/monster/219.wav	1
420	music/sound/monster/220.wav	1
421	music/sound/monster/221.wav	1
422	music/sound/monster/222.wav	1
423	music/sound/monster/223.wav	1
424	music/sound/monster/224.wav	1
425	music/sound/monster/225.wav	1
426	music/sound/monster/226.wav	1
427	music/sound/monster/227.wav	1
428	music/sound/monster/228.wav	1
429	music/sound/monster/229.wav	1
430	music/sound/monster/230.wav	1
431	music/sound/monster/231.wav	1
432	music/sound/monster/232.wav	1
433	music/sound/monster/233.wav	1
434	music/sound/monster/234.wav	1
435	music/sound/monster/235.wav	1
436	music/sound/monster/236.wav	1
437	music/sound/monster/237.wav	1
438	music/sound/monster/238.wav	1
439	music/sound/monster/239.wav	1
440	music/sound/monster/240.wav	1
441	music/sound/monster/241.wav	1
442	music/sound/monster/242.wav	1
443	music/sound/monster/243.wav	1
444	music/sound/monster/244.wav	1
445	music/sound/monster/245.wav	1
446	music/sound/monster/246.wav	1
447	music/sound/monster/247.wav	1
448	music/sound/monster/248.wav	1
449	music/sound/monster/249.wav	1
450	music/sound/monster/250.wav	1
451	music/sound/monster/251.wav	1
452	music/sound/monster/252.wav	1
453	music/sound/monster/253.wav	1
454	music/sound/monster/254.wav	1
455	music/sound/monster/255.wav	1
456	music/sound/monster/256.wav	1